Bölüm12 Uygulamalar | R Ders Notları
…
Alternatif,

diamonds %>% mutate(discount= case_when(
  cut=="Fair" ~ price*0.1,
  cut=="Good" ~ price*0.12,
  cut=="Very Good" ~ price*0.15,
  cut=="Premium" ~ price*0.18,
  cut=="Ideal" ~ price*0.18,
),new.price=price-discount) %>% filter(color=="E"& clarity=="SI1") %>% arrange(new.price)

## # A tibble: 2,426 x 12
##    carat cut   color clarity depth table price     x     y     z discount
##    <dbl> <ord> <ord> <ord>   <dbl> <dbl> <int> <dbl> <dbl> <dbl>    <dbl>
##  1  0.21 Prem… E     SI1      59.8    61   326  3.89  3.84  2.31     58.7
##  2  0.26 Very… E     SI1      62      54   384  4.08  4.11  2.54     57.6
##  3  0.28 Good  E     SI1      62.6    60   373  4.12  4.15  2.59     44.8
##  4  0.27 Very… E     SI1      61.2    57   407  4.2   4.23  2.58     61.0
##  5  0.31 Prem… E     SI1      62.7    58   471  4.32  4.35  2.72     84.8
##  6  0.24 Ideal E     SI1      62.5    56   486  4.01  3.99  2.5      87.5
##  7  0.3  Ideal E     SI1      62.1    58   499  4.27  4.29  2.66     89.8
##  8  0.3  Ideal E     SI1      61.1    57   499  4.3   4.34  2.64     89.8
##  9  0.3  Ideal E     SI1      62.4    57   499  4.27  4.29  2.67     89.8
## 10  0.3  Ideal E     SI1      61.6    54   499  4.32  4.35  2.67     89.8
## # … with 2,416 more rows, and 1 more variable: new.price <dbl>
…
